Instrumentos de Análisis Urbanos II
…
background-image: url(https://github.com/rstudio/hex-stickers/raw/master/PNG/ggplot2.png)
background-position: 95% 10%
background-size: 10%

# Data Viz

### `millas` del   [paquete `{datos}`](https://cienciadedatos.github.io/datos/)

```r
library(tidyverse)
library(datos)

dplyr::as_tibble(millas)
## # A tibble: 234 x 11
##    fabricante modelo     cilindrada  anio cilindros transmision traccion ciudad autopista
##    <chr>      <chr>           <dbl> <int>     <int> <chr>       <chr>     <int>     <int>
##  1 audi       a4                1.8  1999         4 auto(l5)    d            18        29
##  2 audi       a4                1.8  1999         4 manual(m5)  d            21        29
##  3 audi       a4                2    2008         4 manual(m6)  d            20        31
##  4 audi       a4                2    2008         4 auto(av)    d            21        30
##  5 audi       a4                2.8  1999         6 auto(l5)    d            16        26
##  6 audi       a4                2.8  1999         6 manual(m5)  d            18        26
##  7 audi       a4                3.1  2008         6 auto(av)    d            18        27
##  8 audi       a4 quattro        1.8  1999         4 manual(m5)  4            18        26
##  9 audi       a4 quattro        1.8  1999         4 auto(l5)    4            16        25
## 10 audi       a4 quattro        2    2008         4 manual(m6)  4            20        28
## # ... with 224 more rows, and 2 more variables: combustible <chr>, clase <chr>
```
…
