Instrumentos de Análisis Urbanos II
…
---
background-image: url(https://github.com/TuQmano/hex-stickers/raw/master/PNG/readr.png)
background-position: 95% 5%
background-size: 10%

## Importar |  **_Tidy_** 

```r

library(readr)

read_csv(file = "data/arg_presi_gral2003.csv")
## # A tibble: 62,323 x 26
##    codprov depto   coddepto circuito mesa  electores `0001` `0003` `0005` `0014`
##    <chr>   <chr>   <chr>    <chr>    <chr>     <dbl>  <dbl>  <dbl>  <dbl>  <dbl>
##  1 01      Balvan~ 011      0102     0981        416      0      4      1      1
##  2 01      Balvan~ 011      0102     0982        415      1      2      2      3
##  3 01      Balvan~ 011      0102     0983        415      0      3      0      2
##  4 01      Balvan~ 011      0102     0984        415      0      1      0      3
##  5 01      Balvan~ 011      0102     0985        415      0      3      1      0
##  6 01      Balvan~ 011      0102     0986        415      1      5      1      3
##  7 01      Balvan~ 011      0102     0987        415      0      2      2      3
##  8 01      Balvan~ 011      0102     0988        415      2      0      1      4
##  9 01      Balvan~ 011      0102     0989        415      1      1      1      2
## 10 01      Balvan~ 011      0102     0990        415      1      1      2      0
## # ... with 62,313 more rows, and 16 more variables: 0022 <dbl>, 0030 <dbl>,
## #   0037 <dbl>, 0050 <dbl>, 0051 <dbl>, 0053 <dbl>, 0131 <dbl>, 0132 <dbl>,
## #   0133 <dbl>, 0134 <dbl>, 0135 <dbl>, 0136 <dbl>, 0137 <dbl>, 0138 <dbl>,
## #   blancos <dbl>, nulos <dbl>
```
…
####  [`{readr}`](https://github.com/rstudio/cheatsheets/raw/master/translations/spanish/data-import-Spanish_translation-2019.pdf) Cheatsheet

---
background-image: url(https://github.com/TuQmano/hex-stickers/raw/master/PNG/readxl.png)
background-position: 95% 5%
background-size: 10%

## Importar `.xls` y `.xlsx`

```r

library(readxl)

read_xlsx(path = "data/arg_presi_gral2003.xlsx")
## # A tibble: 62,323 x 26
##    codprov depto coddepto circuito  mesa electores   `1`   `3`   `5`  `14`  `22`
##      <dbl> <chr>    <dbl>    <dbl> <dbl>     <dbl> <dbl> <dbl> <dbl> <dbl> <dbl>
##  1       1 Balv~       11      102   981       416     0     4     1     1     3
##  2       1 Balv~       11      102   982       415     1     2     2     3     3
##  3       1 Balv~       11      102   983       415     0     3     0     2     1
##  4       1 Balv~       11      102   984       415     0     1     0     3     2
##  5       1 Balv~       11      102   985       415     0     3     1     0     1
##  6       1 Balv~       11      102   986       415     1     5     1     3     3
##  7       1 Balv~       11      102   987       415     0     2     2     3     1
##  8       1 Balv~       11      102   988       415     2     0     1     4     5
##  9       1 Balv~       11      102   989       415     1     1     1     2     5
## 10       1 Balv~       11      102   990       415     1     1     2     0     0
## # ... with 62,313 more rows, and 15 more variables: 30 <dbl>, 37 <dbl>,
## #   50 <dbl>, 51 <dbl>, 53 <dbl>, 131 <dbl>, 132 <dbl>, 133 <dbl>, 134 <dbl>,
## #   135 <dbl>, 136 <dbl>, 137 <dbl>, 138 <dbl>, blancos <dbl>, nulos <dbl>
```
…
## Importar (otros)

> Lupu, Noam and Susan C. Stokes. 2009. "The Social Bases of Political Parties in Argentina, 1912-2003." Latin American Research Review 44 (1): 58-87. 

> Fuente: [www.noamlupu.com/data.html](https://www.noamlupu.com/data.html)
--

```r

library(haven)

*read_dta(file =  "data/argentina_ecological_data.dta")
## # A tibble: 16,683 x 17
##    recid province     department dcode  year month   dip  pres total   ucr    pj
##    <dbl> <chr>        <chr>      <dbl> <dbl> <dbl> <dbl> <dbl> <dbl> <dbl> <dbl>
##  1  6046 Buenos Aires 25 de Mayo  1000  1914    NA     1     0  1446   724    NA
##  2  6227 Buenos Aires 25 de Mayo  1000  1916    NA     1     0  2725  1358    NA
##  3  6539 Buenos Aires 25 de Mayo  1000  1918    NA     1     0  2698  1863    NA
##  4  6798 Buenos Aires 25 de Mayo  1000  1920    NA     1     0  2664  1620    NA
##  5   136 Buenos Aires 25 de Mayo  1000  1922    NA     0     1  2097  1584    NA
##  6  7076 Buenos Aires 25 de Mayo  1000  1926    NA     1     0  1863  1391    NA
##  7   472 Buenos Aires 25 de Mayo  1000  1928    NA     0     1  5553  2944    NA
##  8  7448 Buenos Aires 25 de Mayo  1000  1930    NA     1     0  5239  2392    NA
##  9   929 Buenos Aires 25 de Mayo  1000  1946    NA     0     1  8808  2699  5878
## 10 14900 Buenos Aires 25 de Mayo  1000  1948     3     1     0  6350  1340  4184
## # ... with 16,673 more rows, and 6 more variables: soc <dbl>, con <dbl>,
## #   enp <dbl>, urb <dbl>, lit <dbl>, pop <dbl>
```
…
## Importar - *Directo de la URL!*

> Lupu, Noam and Susan C. Stokes. 2009. "The Social Bases of Political Parties in Argentina, 1912-2003." Latin American Research Review 44 (1): 58-87. 

> Fuente: [www.noamlupu.com/data.html](https://www.noamlupu.com/data.html)

```r

library(haven)

*read_dta(file =  "https://www.noamlupu.com/argentina_ecological_data.dta")
## # A tibble: 16,683 x 17
##    recid province     department dcode  year month   dip  pres total   ucr    pj
##    <dbl> <chr>        <chr>      <dbl> <dbl> <dbl> <dbl> <dbl> <dbl> <dbl> <dbl>
##  1  6046 Buenos Aires 25 de Mayo  1000  1914    NA     1     0  1446   724    NA
##  2  6227 Buenos Aires 25 de Mayo  1000  1916    NA     1     0  2725  1358    NA
##  3  6539 Buenos Aires 25 de Mayo  1000  1918    NA     1     0  2698  1863    NA
##  4  6798 Buenos Aires 25 de Mayo  1000  1920    NA     1     0  2664  1620    NA
##  5   136 Buenos Aires 25 de Mayo  1000  1922    NA     0     1  2097  1584    NA
##  6  7076 Buenos Aires 25 de Mayo  1000  1926    NA     1     0  1863  1391    NA
##  7   472 Buenos Aires 25 de Mayo  1000  1928    NA     0     1  5553  2944    NA
##  8  7448 Buenos Aires 25 de Mayo  1000  1930    NA     1     0  5239  2392    NA
##  9   929 Buenos Aires 25 de Mayo  1000  1946    NA     0     1  8808  2699  5878
## 10 14900 Buenos Aires 25 de Mayo  1000  1948     3     1     0  6350  1340  4184
## # ... with 16,673 more rows, and 6 more variables: soc <dbl>, con <dbl>,
## #   enp <dbl>, urb <dbl>, lit <dbl>, pop <dbl>
```
…
