Instrumentos de Análisis Urbanos II
…
# Elección Presidencial 2015: 

### ¿Parámetros de la elección?

```r
library(electorAr)

show_available_elections(source = "data")
```

```
## # A tibble: 426 x 5
##    district category round  year  NOMBRE   
##    <chr>    <chr>    <chr>  <chr> <chr>    
##  1 arg      presi    balota 2015  ARGENTINA
##  2 arg      presi    gral   2003  ARGENTINA
##  3 arg      presi    gral   2007  ARGENTINA
##  4 arg      presi    gral   2011  ARGENTINA
*##  5 arg      presi    gral   2015  ARGENTINA
##  6 arg      presi    gral   2019  ARGENTINA
##  7 arg      presi    paso   2011  ARGENTINA
##  8 arg      presi    paso   2015  ARGENTINA
##  9 arg      presi    paso   2019  ARGENTINA
## 10 caba     dip      gral   2005  CABA     
## # ... with 416 more rows
```
…
### Presidente 2015 

```r
gral2015 <-  get_election_data(district = 'arg', 
                  category = 'presi', 
                  round = 'gral', 
                  year = 2015, 
                  level = "departamento") %>% 
  get_names()

gral2015
```

```
## # A tibble: 4,216 x 11
## # Groups:   codprov, depto, coddepto [527]
##    category round  year codprov name_prov depto  coddepto electores listas votos
##    <chr>    <chr> <dbl> <chr>   <chr>     <chr>  <chr>        <dbl> <chr>  <dbl>
##  1 presi    gral   2015 01      CABA      Comun~ 001         179292 0131   33224
##  2 presi    gral   2015 01      CABA      Comun~ 001         179292 0132    5032
##  3 presi    gral   2015 01      CABA      Comun~ 001         179292 0133     944
##  4 presi    gral   2015 01      CABA      Comun~ 001         179292 0135   64042
##  5 presi    gral   2015 01      CABA      Comun~ 001         179292 0137    5362
##  6 presi    gral   2015 01      CABA      Comun~ 001         179292 0138   17227
##  7 presi    gral   2015 01      CABA      Comun~ 001         179292 blanc~  1330
##  8 presi    gral   2015 01      CABA      Comun~ 001         179292 nulos    782
##  9 presi    gral   2015 01      CABA      Comun~ 002         145810 0131   15324
## 10 presi    gral   2015 01      CABA      Comun~ 002         145810 0132    4862
## # ... with 4,206 more rows, and 1 more variable: nombre_lista <chr>
```
…
