Instrumentos de Análisis Urbanos II
…
```r

library(geoAr)  # para geometrías

geo <- get_geo("ARGENTINA") %>% 
  add_geo_codes()

geo
## Simple feature collection with 526 features and 8 fields
## Geometry type: MULTIPOLYGON
## Dimension:     XY
## Bounding box:  xmin: -73.57219 ymin: -55.05624 xmax: -53.64276 ymax: -21.74531
## Geodetic CRS:  WGS 84
## # A tibble: 526 x 9
##    codprov_censo coddepto_censo codprov coddepto nomdepto_censo name_prov   
##    <chr>         <chr>          <chr>   <chr>    <chr>          <chr>       
##  1 02            001            01      001      COMUNA 01      CABA        
##  2 02            002            01      002      COMUNA 02      CABA        
##  3 02            003            01      003      COMUNA 03      CABA        
##  4 02            004            01      004      COMUNA 04      CABA        
##  5 06            091            02      011      BERAZATEGUI    BUENOS AIRES
##  6 74            056            19      001      LA CAPITAL     SAN LUIS    
##  7 02            005            01      005      COMUNA 05      CABA        
##  8 02            006            01      006      COMUNA 06      CABA        
##  9 06            147            02      019      CARLOS CASARES BUENOS AIRES
## 10 02            007            01      007      COMUNA 07      CABA        
## # ... with 516 more rows, and 3 more variables: codprov_iso <chr>,
## #   name_iso <chr>, geometry <MULTIPOLYGON [°]>
```
…
