Instrumentos de Análisis Urbanos II
…
background-image: url(https://github.com/PoliticaArgentina/data_warehouse/raw/master/hex/geoAr.png)
background-position: 95% 5%
background-size: 10%

## Geometrías Argentinas

### Diccionario  - [show_arg_codes()](https://politicaargentina.github.io/geoAr/index.html)

--

```r
library(geoAr)

show_arg_codes()
## # A tibble: 26 x 5
##    id           codprov codprov_censo codprov_iso name_iso                      
##    <chr>        <chr>   <chr>         <chr>       <chr>                         
##  1 ARGENTINA    " "     " "           AR          Argentina                     
##  2 CABA         "01"    "02"          AR-C        Ciudad Autónoma de Buenos Air~
##  3 BUENOS AIRES "02"    "06"          AR-B        Buenos Aires                  
##  4 CATAMARCA    "03"    "10"          AR-K        Catamarca                     
##  5 CORDOBA      "04"    "14"          AR-X        Córdoba                       
##  6 CORRIENTES   "05"    "18"          AR-W        Corrientes                    
##  7 CHACO        "06"    "22"          AR-H        Chaco                         
##  8 CHUBUT       "07"    "26"          AR-U        Chubut                        
##  9 ENTRE RIOS   "08"    "30"          AR-E        Entre Ríos                    
## 10 FORMOSA      "09"    "34"          AR-P        Formosa                       
## # ... with 16 more rows
```
…
background-image: url(https://github.com/PoliticaArgentina/data_warehouse/raw/master/hex/geoAr.png)
background-position: 95% 5%
background-size: 10%

## Geometrías Argentinas 

### Diccionario (**departamentos**) - [show_arg_codes()](https://politicaargentina.github.io/geoAr/index.html)

--

```r
library(geoAr)

show_arg_codes(nivel = "departamentos")
## # A tibble: 527 x 6
##    id        codprov coddepto codprov_censo coddepto_censo nomdepto_censo
##    <chr>     <chr>   <chr>    <chr>         <chr>          <chr>         
##  1 ARGENTINA " "     " "      " "           " "            " "           
##  2 CABA      "01"    "001"    "02"          "001"          "COMUNA 01"   
##  3 CABA      "01"    "002"    "02"          "002"          "COMUNA 02"   
##  4 CABA      "01"    "003"    "02"          "003"          "COMUNA 03"   
##  5 CABA      "01"    "004"    "02"          "004"          "COMUNA 04"   
##  6 CABA      "01"    "005"    "02"          "005"          "COMUNA 05"   
##  7 CABA      "01"    "006"    "02"          "006"          "COMUNA 06"   
##  8 CABA      "01"    "007"    "02"          "007"          "COMUNA 07"   
##  9 CABA      "01"    "008"    "02"          "008"          "COMUNA 08"   
## 10 CABA      "01"    "009"    "02"          "009"          "COMUNA 09"   
## # ... with 517 more rows
```
…
